G04 (created by PCBNEW (2013-may-18)-stable) date Sun Jan 10 17:58:13 2016*
%MOIN*%
G04 Gerber Fmt 3.4, Leading zero omitted, Abs format*
%FSLAX34Y34*%
G01*
G70*
G90*
G04 APERTURE LIST*
%ADD10C,0.00590551*%
%ADD11R,0.0787402X0.03*%
%ADD12R,0.0787402X0.0787402*%
%ADD13C,0.0787402*%
%ADD14R,0.07X0.07*%
%ADD15C,0.07*%
%ADD16C,0.16*%
%ADD17C,0.0590551*%
%ADD18C,0.015748*%
%ADD19C,0.0393701*%
%ADD20C,0.01*%
G04 APERTURE END LIST*
G54D10*
G54D11*
X39750Y-34500D03*
X39750Y-34000D03*
X39750Y-33500D03*
X39750Y-33000D03*
X39750Y-32500D03*
X39750Y-32000D03*
X39750Y-31500D03*
X39750Y-31000D03*
X39750Y-30500D03*
X39750Y-30000D03*
X39750Y-29500D03*
X39750Y-29000D03*
X35750Y-34500D03*
X35750Y-34000D03*
X35750Y-33500D03*
X35750Y-33000D03*
X35750Y-32500D03*
X35750Y-32000D03*
X35750Y-31500D03*
X35750Y-31000D03*
X35750Y-30500D03*
X35750Y-30000D03*
X35750Y-29500D03*
X35750Y-29000D03*
G54D12*
X41450Y-25550D03*
G54D13*
X40450Y-25550D03*
X39450Y-25550D03*
X38450Y-25550D03*
X37450Y-25550D03*
X36450Y-25550D03*
X35450Y-25550D03*
X34450Y-25550D03*
G54D14*
X39550Y-37600D03*
G54D15*
X39550Y-35600D03*
G54D16*
X43650Y-25750D03*
G54D12*
X44150Y-27950D03*
G54D13*
X43150Y-27950D03*
X42150Y-27950D03*
G54D12*
X31350Y-32750D03*
G54D13*
X32350Y-32750D03*
X33350Y-32750D03*
G54D12*
X31350Y-27950D03*
G54D13*
X32350Y-27950D03*
X33350Y-27950D03*
G54D12*
X31350Y-29150D03*
G54D13*
X32350Y-29150D03*
X33350Y-29150D03*
G54D12*
X31350Y-30350D03*
G54D13*
X32350Y-30350D03*
X33350Y-30350D03*
G54D12*
X31350Y-31550D03*
G54D13*
X32350Y-31550D03*
X33350Y-31550D03*
G54D12*
X31350Y-33950D03*
G54D13*
X32350Y-33950D03*
X33350Y-33950D03*
G54D12*
X31350Y-35150D03*
G54D13*
X32350Y-35150D03*
X33350Y-35150D03*
G54D12*
X31350Y-36350D03*
G54D13*
X32350Y-36350D03*
X33350Y-36350D03*
G54D12*
X44150Y-36350D03*
G54D13*
X43150Y-36350D03*
X42150Y-36350D03*
G54D12*
X44150Y-35150D03*
G54D13*
X43150Y-35150D03*
X42150Y-35150D03*
G54D12*
X44150Y-33950D03*
G54D13*
X43150Y-33950D03*
X42150Y-33950D03*
G54D12*
X44150Y-32750D03*
G54D13*
X43150Y-32750D03*
X42150Y-32750D03*
G54D12*
X44150Y-31550D03*
G54D13*
X43150Y-31550D03*
X42150Y-31550D03*
G54D12*
X44150Y-30350D03*
G54D13*
X43150Y-30350D03*
X42150Y-30350D03*
G54D12*
X44150Y-29150D03*
G54D13*
X43150Y-29150D03*
X42150Y-29150D03*
G54D12*
X31350Y-25950D03*
G54D13*
X32350Y-25950D03*
G54D12*
X35550Y-36050D03*
G54D13*
X35550Y-37050D03*
X34650Y-35750D03*
X34650Y-37750D03*
G54D17*
X37050Y-26450D03*
X39250Y-26450D03*
X39650Y-28050D03*
X41200Y-28050D03*
X37550Y-28350D03*
X34800Y-28400D03*
X40400Y-27050D03*
X37600Y-27050D03*
G54D18*
X39750Y-30500D02*
X40400Y-30500D01*
X41950Y-28150D02*
X42150Y-27950D01*
X40950Y-29150D02*
X41950Y-28150D01*
X40950Y-29950D02*
X40950Y-29150D01*
X40400Y-30500D02*
X40950Y-29950D01*
X39750Y-31000D02*
X40500Y-31000D01*
X41350Y-29950D02*
X42150Y-29150D01*
X41350Y-30150D02*
X41350Y-29950D01*
X40500Y-31000D02*
X41350Y-30150D01*
X35750Y-33000D02*
X35100Y-33000D01*
X34150Y-33950D02*
X33350Y-33950D01*
X35100Y-33000D02*
X34150Y-33950D01*
X35750Y-32500D02*
X33600Y-32500D01*
X33600Y-32500D02*
X33350Y-32750D01*
X35750Y-32000D02*
X33800Y-32000D01*
X33800Y-32000D02*
X33350Y-31550D01*
X35750Y-31500D02*
X34400Y-31500D01*
X33350Y-30450D02*
X33350Y-30350D01*
X34400Y-31500D02*
X33350Y-30450D01*
X35750Y-31000D02*
X34600Y-31000D01*
X33550Y-29350D02*
X33350Y-29150D01*
X34150Y-29950D02*
X33550Y-29350D01*
X34150Y-30550D02*
X34150Y-29950D01*
X34600Y-31000D02*
X34150Y-30550D01*
X35750Y-30500D02*
X34900Y-30500D01*
X34550Y-29150D02*
X33350Y-27950D01*
X34550Y-30150D02*
X34550Y-29150D01*
X34900Y-30500D02*
X34550Y-30150D01*
X39750Y-31500D02*
X40600Y-31500D01*
X41750Y-30350D02*
X42150Y-30350D01*
X40600Y-31500D02*
X41750Y-30350D01*
X39750Y-32000D02*
X40700Y-32000D01*
X41150Y-31550D02*
X42150Y-31550D01*
X40700Y-32000D02*
X41150Y-31550D01*
X39750Y-32500D02*
X41300Y-32500D01*
X41550Y-32750D02*
X42150Y-32750D01*
X41300Y-32500D02*
X41550Y-32750D01*
X39750Y-33000D02*
X40400Y-33000D01*
X41350Y-33950D02*
X42150Y-33950D01*
X40400Y-33000D02*
X41350Y-33950D01*
X39750Y-33500D02*
X40300Y-33500D01*
X41750Y-35150D02*
X42150Y-35150D01*
X40950Y-34350D02*
X41750Y-35150D01*
X40950Y-34150D02*
X40950Y-34350D01*
X40300Y-33500D02*
X40950Y-34150D01*
X39750Y-34000D02*
X40300Y-34000D01*
X40300Y-34000D02*
X40600Y-34300D01*
X41550Y-35750D02*
X42150Y-36350D01*
X41550Y-35650D02*
X41550Y-35750D01*
X40600Y-34700D02*
X41550Y-35650D01*
X40600Y-34300D02*
X40600Y-34700D01*
X34750Y-34550D02*
X34000Y-35300D01*
X35300Y-34000D02*
X34750Y-34550D01*
X35750Y-34000D02*
X35300Y-34000D01*
X34000Y-35700D02*
X33350Y-36350D01*
X34000Y-35300D02*
X34000Y-35700D01*
X34150Y-34550D02*
X33650Y-35050D01*
X35200Y-33500D02*
X34150Y-34550D01*
X35750Y-33500D02*
X35200Y-33500D01*
X33450Y-35050D02*
X33350Y-35150D01*
X33650Y-35050D02*
X33450Y-35050D01*
X36950Y-26550D02*
X36950Y-26850D01*
X37050Y-26450D02*
X36950Y-26550D01*
X36950Y-26650D02*
X36950Y-26850D01*
X36950Y-26850D02*
X36950Y-29550D01*
X36950Y-29550D02*
X36500Y-30000D01*
X35750Y-30000D02*
X36500Y-30000D01*
X39450Y-26200D02*
X39450Y-26250D01*
X39450Y-25550D02*
X39450Y-26200D01*
X39450Y-26250D02*
X39250Y-26450D01*
G54D19*
X39550Y-37600D02*
X39650Y-37600D01*
X39900Y-37850D02*
X39550Y-37600D01*
X39650Y-37600D02*
X39900Y-37850D01*
X44150Y-36350D02*
X44150Y-36850D01*
X44150Y-36850D02*
X43150Y-37850D01*
X43150Y-37850D02*
X35250Y-37850D01*
X31350Y-25950D02*
X31350Y-25300D01*
X44150Y-27250D02*
X44150Y-27950D01*
X43850Y-26950D02*
X44150Y-27250D01*
X42800Y-26950D02*
X43850Y-26950D01*
X42350Y-26500D02*
X42800Y-26950D01*
X42350Y-24950D02*
X42350Y-26500D01*
X42150Y-24750D02*
X42350Y-24950D01*
X31900Y-24750D02*
X42150Y-24750D01*
X31350Y-25300D02*
X31900Y-24750D01*
X31350Y-27950D02*
X31350Y-25950D01*
X31350Y-29150D02*
X31350Y-27950D01*
X31350Y-30350D02*
X31350Y-29150D01*
X31350Y-31550D02*
X31350Y-30350D01*
X31350Y-32750D02*
X31350Y-31550D01*
X31350Y-33950D02*
X31350Y-32750D01*
X31350Y-35150D02*
X31350Y-33950D01*
X31350Y-36350D02*
X31350Y-35150D01*
X44150Y-32750D02*
X44150Y-31550D01*
X44150Y-33950D02*
X44150Y-32750D01*
X44150Y-35150D02*
X44150Y-33950D01*
X44150Y-36350D02*
X44150Y-35150D01*
X44150Y-30350D02*
X44150Y-31550D01*
X44150Y-29150D02*
X44150Y-30350D01*
X44150Y-27950D02*
X44150Y-29150D01*
X31350Y-36350D02*
X31350Y-37550D01*
X31350Y-37550D02*
X31550Y-37750D01*
G54D18*
X39750Y-29000D02*
X39650Y-28050D01*
X41200Y-28050D02*
X41450Y-27800D01*
X41450Y-27800D02*
X41450Y-25550D01*
G54D19*
X35150Y-37750D02*
X34650Y-37750D01*
X35250Y-37850D02*
X35150Y-37750D01*
X31550Y-37750D02*
X34650Y-37750D01*
G54D18*
X39750Y-30000D02*
X40385Y-30000D01*
X40385Y-30000D02*
X40600Y-29785D01*
X38450Y-26500D02*
X38450Y-25550D01*
X39300Y-27350D02*
X38450Y-26500D01*
X39800Y-27350D02*
X39300Y-27350D01*
X40600Y-28150D02*
X39800Y-27350D01*
X40600Y-29785D02*
X40600Y-28150D01*
X37900Y-26000D02*
X37450Y-25550D01*
X37900Y-26450D02*
X37900Y-26000D01*
X38900Y-27450D02*
X37900Y-26450D01*
X38900Y-29350D02*
X38900Y-27450D01*
X39750Y-29500D02*
X39050Y-29500D01*
X39050Y-29500D02*
X38900Y-29350D01*
X36450Y-27450D02*
X36450Y-25550D01*
X36550Y-27550D02*
X36450Y-27450D01*
X36550Y-29350D02*
X36550Y-27550D01*
X35750Y-29500D02*
X36400Y-29500D01*
X36400Y-29500D02*
X36550Y-29350D01*
X35750Y-29000D02*
X35750Y-26950D01*
X35750Y-26950D02*
X35450Y-26650D01*
X35450Y-26650D02*
X35450Y-25550D01*
X34600Y-35600D02*
X35100Y-35600D01*
X34450Y-28050D02*
X34450Y-25550D01*
X35750Y-34500D02*
X36350Y-34500D01*
X36350Y-34500D02*
X36700Y-34150D01*
X36700Y-34150D02*
X36700Y-30450D01*
X36700Y-30450D02*
X37550Y-29600D01*
X37550Y-29600D02*
X37550Y-28350D01*
X34800Y-28400D02*
X34450Y-28050D01*
X35100Y-35600D02*
X35550Y-36050D01*
X35750Y-34500D02*
X35750Y-35850D01*
X35750Y-35850D02*
X35550Y-36050D01*
G54D19*
X39550Y-35600D02*
X38150Y-35600D01*
X36700Y-37050D02*
X35550Y-37050D01*
X38150Y-35600D02*
X36700Y-37050D01*
X43150Y-36350D02*
X43150Y-36650D01*
X40100Y-35600D02*
X39550Y-35600D01*
X41700Y-37200D02*
X40100Y-35600D01*
X42600Y-37200D02*
X41700Y-37200D01*
X43150Y-36650D02*
X42600Y-37200D01*
X35400Y-36900D02*
X35550Y-37050D01*
X32350Y-36959D02*
X32540Y-37150D01*
X32350Y-36950D02*
X32350Y-36959D01*
X32540Y-37150D02*
X33800Y-37150D01*
X33800Y-37150D02*
X34050Y-36900D01*
X34050Y-36900D02*
X35400Y-36900D01*
X43150Y-36350D02*
X43150Y-35150D01*
X32350Y-32750D02*
X32350Y-33950D01*
X32350Y-36350D02*
X32350Y-35150D01*
X32350Y-33950D02*
X32350Y-35150D01*
X32350Y-31550D02*
X32350Y-32750D01*
X32350Y-31550D02*
X32350Y-30350D01*
X32350Y-30350D02*
X32350Y-29150D01*
X32350Y-27950D02*
X32350Y-29150D01*
X43150Y-35150D02*
X43150Y-33950D01*
X43150Y-33950D02*
X43150Y-32750D01*
X43150Y-32750D02*
X43150Y-31550D01*
X43150Y-31550D02*
X43150Y-30350D01*
X43150Y-30350D02*
X43150Y-29150D01*
X43150Y-29150D02*
X43150Y-27950D01*
X32350Y-36350D02*
X32350Y-36950D01*
X32350Y-36950D02*
X32450Y-37050D01*
X32350Y-27950D02*
X32350Y-25950D01*
X32450Y-37050D02*
X32350Y-36950D01*
G54D18*
X43000Y-36500D02*
X43150Y-36350D01*
G54D19*
X43150Y-27950D02*
X43150Y-36550D01*
X32350Y-27950D02*
X32350Y-36350D01*
G54D18*
X38550Y-29600D02*
X38550Y-28000D01*
X40400Y-26400D02*
X40450Y-26400D01*
X40450Y-26450D02*
X40400Y-26400D01*
X40450Y-27000D02*
X40450Y-26450D01*
X40400Y-27050D02*
X40450Y-27000D01*
X38550Y-28000D02*
X37600Y-27050D01*
X40450Y-26500D02*
X40450Y-26400D01*
X40450Y-26400D02*
X40450Y-25550D01*
X38850Y-30450D02*
X38850Y-34150D01*
X38850Y-34150D02*
X39200Y-34500D01*
X39750Y-34500D02*
X39200Y-34500D01*
X38850Y-29900D02*
X38550Y-29600D01*
X38850Y-30450D02*
X38850Y-29900D01*
G54D10*
G36*
X34726Y-37755D02*
X34655Y-37826D01*
X34650Y-37820D01*
X34644Y-37826D01*
X34573Y-37755D01*
X34579Y-37750D01*
X34573Y-37744D01*
X34644Y-37673D01*
X34650Y-37679D01*
X34655Y-37673D01*
X34726Y-37744D01*
X34720Y-37750D01*
X34726Y-37755D01*
X34726Y-37755D01*
G37*
G54D20*
X34726Y-37755D02*
X34655Y-37826D01*
X34650Y-37820D01*
X34644Y-37826D01*
X34573Y-37755D01*
X34579Y-37750D01*
X34573Y-37744D01*
X34644Y-37673D01*
X34650Y-37679D01*
X34655Y-37673D01*
X34726Y-37744D01*
X34720Y-37750D01*
X34726Y-37755D01*
G54D10*
G36*
X40271Y-28632D02*
X40193Y-28600D01*
X40094Y-28599D01*
X39862Y-28600D01*
X39800Y-28662D01*
X39800Y-28950D01*
X39807Y-28950D01*
X39807Y-29050D01*
X39800Y-29050D01*
X39800Y-29057D01*
X39700Y-29057D01*
X39700Y-29050D01*
X39692Y-29050D01*
X39692Y-28950D01*
X39700Y-28950D01*
X39700Y-28662D01*
X39637Y-28600D01*
X39405Y-28599D01*
X39306Y-28600D01*
X39228Y-28632D01*
X39228Y-27664D01*
X39300Y-27678D01*
X39663Y-27678D01*
X40271Y-28286D01*
X40271Y-28632D01*
X40271Y-28632D01*
G37*
G54D20*
X40271Y-28632D02*
X40193Y-28600D01*
X40094Y-28599D01*
X39862Y-28600D01*
X39800Y-28662D01*
X39800Y-28950D01*
X39807Y-28950D01*
X39807Y-29050D01*
X39800Y-29050D01*
X39800Y-29057D01*
X39700Y-29057D01*
X39700Y-29050D01*
X39692Y-29050D01*
X39692Y-28950D01*
X39700Y-28950D01*
X39700Y-28662D01*
X39637Y-28600D01*
X39405Y-28599D01*
X39306Y-28600D01*
X39228Y-28632D01*
X39228Y-27664D01*
X39300Y-27678D01*
X39663Y-27678D01*
X40271Y-28286D01*
X40271Y-28632D01*
G54D10*
G36*
X44700Y-38000D02*
X40149Y-38000D01*
X40150Y-37999D01*
X40150Y-37200D01*
X40112Y-37108D01*
X40041Y-37038D01*
X39949Y-37000D01*
X39850Y-36999D01*
X39662Y-37000D01*
X39600Y-37062D01*
X39600Y-37550D01*
X40087Y-37550D01*
X40150Y-37487D01*
X40150Y-37200D01*
X40150Y-37999D01*
X40150Y-37712D01*
X40087Y-37650D01*
X39600Y-37650D01*
X39600Y-37657D01*
X39500Y-37657D01*
X39500Y-37650D01*
X39500Y-37550D01*
X39500Y-37062D01*
X39437Y-37000D01*
X39249Y-36999D01*
X39150Y-37000D01*
X39058Y-37038D01*
X38987Y-37108D01*
X38949Y-37200D01*
X38950Y-37487D01*
X39012Y-37550D01*
X39500Y-37550D01*
X39500Y-37650D01*
X39012Y-37650D01*
X38950Y-37712D01*
X38949Y-37999D01*
X38950Y-38000D01*
X35243Y-38000D01*
X35297Y-37854D01*
X35290Y-37639D01*
X35421Y-37693D01*
X35677Y-37693D01*
X35914Y-37596D01*
X36013Y-37496D01*
X36700Y-37496D01*
X36871Y-37462D01*
X36871Y-37462D01*
X37015Y-37365D01*
X38335Y-36046D01*
X39148Y-36046D01*
X39209Y-36108D01*
X39430Y-36199D01*
X39668Y-36200D01*
X39889Y-36108D01*
X39933Y-36065D01*
X41384Y-37515D01*
X41384Y-37515D01*
X41528Y-37612D01*
X41699Y-37646D01*
X41700Y-37646D01*
X42600Y-37646D01*
X42771Y-37612D01*
X42771Y-37612D01*
X42915Y-37515D01*
X43465Y-36965D01*
X43512Y-36896D01*
X43514Y-36896D01*
X43538Y-36871D01*
X43544Y-36885D01*
X43614Y-36955D01*
X43706Y-36993D01*
X44037Y-36993D01*
X44100Y-36931D01*
X44100Y-36400D01*
X44092Y-36400D01*
X44092Y-36300D01*
X44100Y-36300D01*
X44100Y-35768D01*
X44081Y-35750D01*
X44100Y-35731D01*
X44100Y-35200D01*
X44092Y-35200D01*
X44092Y-35100D01*
X44100Y-35100D01*
X44100Y-34568D01*
X44081Y-34550D01*
X44100Y-34531D01*
X44100Y-34000D01*
X44092Y-34000D01*
X44092Y-33900D01*
X44100Y-33900D01*
X44100Y-33368D01*
X44081Y-33350D01*
X44100Y-33331D01*
X44100Y-32800D01*
X44092Y-32800D01*
X44092Y-32700D01*
X44100Y-32700D01*
X44100Y-32168D01*
X44081Y-32150D01*
X44100Y-32131D01*
X44100Y-31600D01*
X44092Y-31600D01*
X44092Y-31500D01*
X44100Y-31500D01*
X44100Y-30968D01*
X44081Y-30950D01*
X44100Y-30931D01*
X44100Y-30400D01*
X44092Y-30400D01*
X44092Y-30300D01*
X44100Y-30300D01*
X44100Y-29768D01*
X44081Y-29750D01*
X44100Y-29731D01*
X44100Y-29200D01*
X44092Y-29200D01*
X44092Y-29100D01*
X44100Y-29100D01*
X44100Y-28568D01*
X44081Y-28550D01*
X44100Y-28531D01*
X44100Y-28000D01*
X44092Y-28000D01*
X44092Y-27900D01*
X44100Y-27900D01*
X44100Y-27368D01*
X44037Y-27306D01*
X43706Y-27306D01*
X43614Y-27344D01*
X43544Y-27414D01*
X43538Y-27428D01*
X43515Y-27404D01*
X43278Y-27306D01*
X43022Y-27306D01*
X42785Y-27403D01*
X42649Y-27539D01*
X42515Y-27404D01*
X42278Y-27306D01*
X42093Y-27306D01*
X42093Y-25894D01*
X42093Y-25205D01*
X42093Y-25106D01*
X42055Y-25014D01*
X41985Y-24944D01*
X41893Y-24906D01*
X41562Y-24906D01*
X41500Y-24968D01*
X41500Y-25500D01*
X42031Y-25500D01*
X42093Y-25437D01*
X42093Y-25205D01*
X42093Y-25894D01*
X42093Y-25662D01*
X42031Y-25600D01*
X41500Y-25600D01*
X41500Y-26131D01*
X41562Y-26193D01*
X41893Y-26193D01*
X41985Y-26155D01*
X42055Y-26085D01*
X42093Y-25993D01*
X42093Y-25894D01*
X42093Y-27306D01*
X42022Y-27306D01*
X41785Y-27403D01*
X41604Y-27584D01*
X41506Y-27821D01*
X41506Y-28077D01*
X41521Y-28113D01*
X40928Y-28706D01*
X40928Y-28150D01*
X40928Y-28149D01*
X40903Y-28024D01*
X40832Y-27917D01*
X40832Y-27917D01*
X40509Y-27594D01*
X40708Y-27512D01*
X40861Y-27359D01*
X40945Y-27158D01*
X40945Y-26942D01*
X40862Y-26741D01*
X40778Y-26657D01*
X40778Y-26500D01*
X40778Y-26450D01*
X40778Y-26400D01*
X40778Y-26110D01*
X40814Y-26096D01*
X40838Y-26071D01*
X40844Y-26085D01*
X40914Y-26155D01*
X41006Y-26193D01*
X41337Y-26193D01*
X41400Y-26131D01*
X41400Y-25600D01*
X41392Y-25600D01*
X41392Y-25500D01*
X41400Y-25500D01*
X41400Y-24968D01*
X41337Y-24906D01*
X41006Y-24906D01*
X40914Y-24944D01*
X40844Y-25014D01*
X40838Y-25028D01*
X40815Y-25004D01*
X40578Y-24906D01*
X40322Y-24906D01*
X40085Y-25003D01*
X39949Y-25139D01*
X39815Y-25004D01*
X39578Y-24906D01*
X39322Y-24906D01*
X39085Y-25003D01*
X38949Y-25139D01*
X38815Y-25004D01*
X38578Y-24906D01*
X38322Y-24906D01*
X38085Y-25003D01*
X37949Y-25139D01*
X37815Y-25004D01*
X37578Y-24906D01*
X37322Y-24906D01*
X37085Y-25003D01*
X36949Y-25139D01*
X36815Y-25004D01*
X36578Y-24906D01*
X36322Y-24906D01*
X36085Y-25003D01*
X35949Y-25139D01*
X35815Y-25004D01*
X35578Y-24906D01*
X35322Y-24906D01*
X35085Y-25003D01*
X34949Y-25139D01*
X34815Y-25004D01*
X34578Y-24906D01*
X34322Y-24906D01*
X34085Y-25003D01*
X33904Y-25184D01*
X33806Y-25421D01*
X33806Y-25677D01*
X33903Y-25914D01*
X34084Y-26095D01*
X34121Y-26110D01*
X34121Y-28050D01*
X34146Y-28175D01*
X34217Y-28282D01*
X34254Y-28319D01*
X34254Y-28389D01*
X33978Y-28113D01*
X33993Y-28078D01*
X33993Y-27822D01*
X33896Y-27585D01*
X33715Y-27404D01*
X33478Y-27306D01*
X33222Y-27306D01*
X32985Y-27403D01*
X32849Y-27539D01*
X32796Y-27486D01*
X32796Y-26413D01*
X32895Y-26315D01*
X32993Y-26078D01*
X32993Y-25822D01*
X32896Y-25585D01*
X32715Y-25404D01*
X32478Y-25306D01*
X32222Y-25306D01*
X31985Y-25403D01*
X31961Y-25428D01*
X31955Y-25414D01*
X31885Y-25344D01*
X31793Y-25306D01*
X31462Y-25306D01*
X31400Y-25368D01*
X31400Y-25900D01*
X31407Y-25900D01*
X31407Y-26000D01*
X31400Y-26000D01*
X31400Y-26531D01*
X31462Y-26593D01*
X31793Y-26593D01*
X31885Y-26555D01*
X31903Y-26537D01*
X31903Y-27362D01*
X31885Y-27344D01*
X31793Y-27306D01*
X31462Y-27306D01*
X31400Y-27368D01*
X31400Y-27900D01*
X31407Y-27900D01*
X31407Y-28000D01*
X31400Y-28000D01*
X31400Y-28531D01*
X31418Y-28550D01*
X31400Y-28568D01*
X31400Y-29100D01*
X31407Y-29100D01*
X31407Y-29200D01*
X31400Y-29200D01*
X31400Y-29731D01*
X31418Y-29750D01*
X31400Y-29768D01*
X31400Y-30300D01*
X31407Y-30300D01*
X31407Y-30400D01*
X31400Y-30400D01*
X31400Y-30931D01*
X31418Y-30950D01*
X31400Y-30968D01*
X31400Y-31500D01*
X31407Y-31500D01*
X31407Y-31600D01*
X31400Y-31600D01*
X31400Y-32131D01*
X31418Y-32150D01*
X31400Y-32168D01*
X31400Y-32700D01*
X31407Y-32700D01*
X31407Y-32800D01*
X31400Y-32800D01*
X31400Y-33331D01*
X31418Y-33350D01*
X31400Y-33368D01*
X31400Y-33900D01*
X31407Y-33900D01*
X31407Y-34000D01*
X31400Y-34000D01*
X31400Y-34531D01*
X31418Y-34550D01*
X31400Y-34568D01*
X31400Y-35100D01*
X31407Y-35100D01*
X31407Y-35200D01*
X31400Y-35200D01*
X31400Y-35731D01*
X31418Y-35750D01*
X31400Y-35768D01*
X31400Y-36300D01*
X31407Y-36300D01*
X31407Y-36400D01*
X31400Y-36400D01*
X31400Y-36931D01*
X31462Y-36993D01*
X31793Y-36993D01*
X31885Y-36955D01*
X31903Y-36937D01*
X31903Y-36950D01*
X31903Y-36959D01*
X31937Y-37130D01*
X32034Y-37275D01*
X32224Y-37465D01*
X32369Y-37562D01*
X32369Y-37562D01*
X32540Y-37596D01*
X33800Y-37596D01*
X33971Y-37562D01*
X33971Y-37562D01*
X34053Y-37507D01*
X34002Y-37645D01*
X34011Y-37901D01*
X34052Y-38000D01*
X30800Y-38000D01*
X30800Y-36940D01*
X30814Y-36955D01*
X30906Y-36993D01*
X31237Y-36993D01*
X31300Y-36931D01*
X31300Y-36400D01*
X31292Y-36400D01*
X31292Y-36300D01*
X31300Y-36300D01*
X31300Y-35768D01*
X31281Y-35750D01*
X31300Y-35731D01*
X31300Y-35200D01*
X31292Y-35200D01*
X31292Y-35100D01*
X31300Y-35100D01*
X31300Y-34568D01*
X31281Y-34550D01*
X31300Y-34531D01*
X31300Y-34000D01*
X31292Y-34000D01*
X31292Y-33900D01*
X31300Y-33900D01*
X31300Y-33368D01*
X31281Y-33350D01*
X31300Y-33331D01*
X31300Y-32800D01*
X31292Y-32800D01*
X31292Y-32700D01*
X31300Y-32700D01*
X31300Y-32168D01*
X31281Y-32150D01*
X31300Y-32131D01*
X31300Y-31600D01*
X31292Y-31600D01*
X31292Y-31500D01*
X31300Y-31500D01*
X31300Y-30968D01*
X31281Y-30950D01*
X31300Y-30931D01*
X31300Y-30400D01*
X31292Y-30400D01*
X31292Y-30300D01*
X31300Y-30300D01*
X31300Y-29768D01*
X31281Y-29750D01*
X31300Y-29731D01*
X31300Y-29200D01*
X31292Y-29200D01*
X31292Y-29100D01*
X31300Y-29100D01*
X31300Y-28568D01*
X31281Y-28550D01*
X31300Y-28531D01*
X31300Y-28000D01*
X31292Y-28000D01*
X31292Y-27900D01*
X31300Y-27900D01*
X31300Y-27368D01*
X31237Y-27306D01*
X30906Y-27306D01*
X30814Y-27344D01*
X30800Y-27359D01*
X30800Y-26540D01*
X30814Y-26555D01*
X30906Y-26593D01*
X31237Y-26593D01*
X31300Y-26531D01*
X31300Y-26000D01*
X31292Y-26000D01*
X31292Y-25900D01*
X31300Y-25900D01*
X31300Y-25368D01*
X31237Y-25306D01*
X30906Y-25306D01*
X30814Y-25344D01*
X30800Y-25359D01*
X30800Y-24700D01*
X43441Y-24700D01*
X43056Y-24859D01*
X42760Y-25154D01*
X42600Y-25540D01*
X42599Y-25957D01*
X42759Y-26344D01*
X43054Y-26639D01*
X43440Y-26799D01*
X43857Y-26800D01*
X44244Y-26640D01*
X44539Y-26345D01*
X44699Y-25959D01*
X44700Y-25750D01*
X44700Y-27359D01*
X44685Y-27344D01*
X44593Y-27306D01*
X44262Y-27306D01*
X44200Y-27368D01*
X44200Y-27900D01*
X44207Y-27900D01*
X44207Y-28000D01*
X44200Y-28000D01*
X44200Y-28531D01*
X44218Y-28550D01*
X44200Y-28568D01*
X44200Y-29100D01*
X44207Y-29100D01*
X44207Y-29200D01*
X44200Y-29200D01*
X44200Y-29731D01*
X44218Y-29750D01*
X44200Y-29768D01*
X44200Y-30300D01*
X44207Y-30300D01*
X44207Y-30400D01*
X44200Y-30400D01*
X44200Y-30931D01*
X44218Y-30950D01*
X44200Y-30968D01*
X44200Y-31500D01*
X44207Y-31500D01*
X44207Y-31600D01*
X44200Y-31600D01*
X44200Y-32131D01*
X44218Y-32150D01*
X44200Y-32168D01*
X44200Y-32700D01*
X44207Y-32700D01*
X44207Y-32800D01*
X44200Y-32800D01*
X44200Y-33331D01*
X44218Y-33350D01*
X44200Y-33368D01*
X44200Y-33900D01*
X44207Y-33900D01*
X44207Y-34000D01*
X44200Y-34000D01*
X44200Y-34531D01*
X44218Y-34550D01*
X44200Y-34568D01*
X44200Y-35100D01*
X44207Y-35100D01*
X44207Y-35200D01*
X44200Y-35200D01*
X44200Y-35731D01*
X44218Y-35750D01*
X44200Y-35768D01*
X44200Y-36300D01*
X44207Y-36300D01*
X44207Y-36400D01*
X44200Y-36400D01*
X44200Y-36931D01*
X44262Y-36993D01*
X44593Y-36993D01*
X44685Y-36955D01*
X44700Y-36940D01*
X44700Y-38000D01*
X44700Y-38000D01*
G37*
G54D20*
X44700Y-38000D02*
X40149Y-38000D01*
X40150Y-37999D01*
X40150Y-37200D01*
X40112Y-37108D01*
X40041Y-37038D01*
X39949Y-37000D01*
X39850Y-36999D01*
X39662Y-37000D01*
X39600Y-37062D01*
X39600Y-37550D01*
X40087Y-37550D01*
X40150Y-37487D01*
X40150Y-37200D01*
X40150Y-37999D01*
X40150Y-37712D01*
X40087Y-37650D01*
X39600Y-37650D01*
X39600Y-37657D01*
X39500Y-37657D01*
X39500Y-37650D01*
X39500Y-37550D01*
X39500Y-37062D01*
X39437Y-37000D01*
X39249Y-36999D01*
X39150Y-37000D01*
X39058Y-37038D01*
X38987Y-37108D01*
X38949Y-37200D01*
X38950Y-37487D01*
X39012Y-37550D01*
X39500Y-37550D01*
X39500Y-37650D01*
X39012Y-37650D01*
X38950Y-37712D01*
X38949Y-37999D01*
X38950Y-38000D01*
X35243Y-38000D01*
X35297Y-37854D01*
X35290Y-37639D01*
X35421Y-37693D01*
X35677Y-37693D01*
X35914Y-37596D01*
X36013Y-37496D01*
X36700Y-37496D01*
X36871Y-37462D01*
X36871Y-37462D01*
X37015Y-37365D01*
X38335Y-36046D01*
X39148Y-36046D01*
X39209Y-36108D01*
X39430Y-36199D01*
X39668Y-36200D01*
X39889Y-36108D01*
X39933Y-36065D01*
X41384Y-37515D01*
X41384Y-37515D01*
X41528Y-37612D01*
X41699Y-37646D01*
X41700Y-37646D01*
X42600Y-37646D01*
X42771Y-37612D01*
X42771Y-37612D01*
X42915Y-37515D01*
X43465Y-36965D01*
X43512Y-36896D01*
X43514Y-36896D01*
X43538Y-36871D01*
X43544Y-36885D01*
X43614Y-36955D01*
X43706Y-36993D01*
X44037Y-36993D01*
X44100Y-36931D01*
X44100Y-36400D01*
X44092Y-36400D01*
X44092Y-36300D01*
X44100Y-36300D01*
X44100Y-35768D01*
X44081Y-35750D01*
X44100Y-35731D01*
X44100Y-35200D01*
X44092Y-35200D01*
X44092Y-35100D01*
X44100Y-35100D01*
X44100Y-34568D01*
X44081Y-34550D01*
X44100Y-34531D01*
X44100Y-34000D01*
X44092Y-34000D01*
X44092Y-33900D01*
X44100Y-33900D01*
X44100Y-33368D01*
X44081Y-33350D01*
X44100Y-33331D01*
X44100Y-32800D01*
X44092Y-32800D01*
X44092Y-32700D01*
X44100Y-32700D01*
X44100Y-32168D01*
X44081Y-32150D01*
X44100Y-32131D01*
X44100Y-31600D01*
X44092Y-31600D01*
X44092Y-31500D01*
X44100Y-31500D01*
X44100Y-30968D01*
X44081Y-30950D01*
X44100Y-30931D01*
X44100Y-30400D01*
X44092Y-30400D01*
X44092Y-30300D01*
X44100Y-30300D01*
X44100Y-29768D01*
X44081Y-29750D01*
X44100Y-29731D01*
X44100Y-29200D01*
X44092Y-29200D01*
X44092Y-29100D01*
X44100Y-29100D01*
X44100Y-28568D01*
X44081Y-28550D01*
X44100Y-28531D01*
X44100Y-28000D01*
X44092Y-28000D01*
X44092Y-27900D01*
X44100Y-27900D01*
X44100Y-27368D01*
X44037Y-27306D01*
X43706Y-27306D01*
X43614Y-27344D01*
X43544Y-27414D01*
X43538Y-27428D01*
X43515Y-27404D01*
X43278Y-27306D01*
X43022Y-27306D01*
X42785Y-27403D01*
X42649Y-27539D01*
X42515Y-27404D01*
X42278Y-27306D01*
X42093Y-27306D01*
X42093Y-25894D01*
X42093Y-25205D01*
X42093Y-25106D01*
X42055Y-25014D01*
X41985Y-24944D01*
X41893Y-24906D01*
X41562Y-24906D01*
X41500Y-24968D01*
X41500Y-25500D01*
X42031Y-25500D01*
X42093Y-25437D01*
X42093Y-25205D01*
X42093Y-25894D01*
X42093Y-25662D01*
X42031Y-25600D01*
X41500Y-25600D01*
X41500Y-26131D01*
X41562Y-26193D01*
X41893Y-26193D01*
X41985Y-26155D01*
X42055Y-26085D01*
X42093Y-25993D01*
X42093Y-25894D01*
X42093Y-27306D01*
X42022Y-27306D01*
X41785Y-27403D01*
X41604Y-27584D01*
X41506Y-27821D01*
X41506Y-28077D01*
X41521Y-28113D01*
X40928Y-28706D01*
X40928Y-28150D01*
X40928Y-28149D01*
X40903Y-28024D01*
X40832Y-27917D01*
X40832Y-27917D01*
X40509Y-27594D01*
X40708Y-27512D01*
X40861Y-27359D01*
X40945Y-27158D01*
X40945Y-26942D01*
X40862Y-26741D01*
X40778Y-26657D01*
X40778Y-26500D01*
X40778Y-26450D01*
X40778Y-26400D01*
X40778Y-26110D01*
X40814Y-26096D01*
X40838Y-26071D01*
X40844Y-26085D01*
X40914Y-26155D01*
X41006Y-26193D01*
X41337Y-26193D01*
X41400Y-26131D01*
X41400Y-25600D01*
X41392Y-25600D01*
X41392Y-25500D01*
X41400Y-25500D01*
X41400Y-24968D01*
X41337Y-24906D01*
X41006Y-24906D01*
X40914Y-24944D01*
X40844Y-25014D01*
X40838Y-25028D01*
X40815Y-25004D01*
X40578Y-24906D01*
X40322Y-24906D01*
X40085Y-25003D01*
X39949Y-25139D01*
X39815Y-25004D01*
X39578Y-24906D01*
X39322Y-24906D01*
X39085Y-25003D01*
X38949Y-25139D01*
X38815Y-25004D01*
X38578Y-24906D01*
X38322Y-24906D01*
X38085Y-25003D01*
X37949Y-25139D01*
X37815Y-25004D01*
X37578Y-24906D01*
X37322Y-24906D01*
X37085Y-25003D01*
X36949Y-25139D01*
X36815Y-25004D01*
X36578Y-24906D01*
X36322Y-24906D01*
X36085Y-25003D01*
X35949Y-25139D01*
X35815Y-25004D01*
X35578Y-24906D01*
X35322Y-24906D01*
X35085Y-25003D01*
X34949Y-25139D01*
X34815Y-25004D01*
X34578Y-24906D01*
X34322Y-24906D01*
X34085Y-25003D01*
X33904Y-25184D01*
X33806Y-25421D01*
X33806Y-25677D01*
X33903Y-25914D01*
X34084Y-26095D01*
X34121Y-26110D01*
X34121Y-28050D01*
X34146Y-28175D01*
X34217Y-28282D01*
X34254Y-28319D01*
X34254Y-28389D01*
X33978Y-28113D01*
X33993Y-28078D01*
X33993Y-27822D01*
X33896Y-27585D01*
X33715Y-27404D01*
X33478Y-27306D01*
X33222Y-27306D01*
X32985Y-27403D01*
X32849Y-27539D01*
X32796Y-27486D01*
X32796Y-26413D01*
X32895Y-26315D01*
X32993Y-26078D01*
X32993Y-25822D01*
X32896Y-25585D01*
X32715Y-25404D01*
X32478Y-25306D01*
X32222Y-25306D01*
X31985Y-25403D01*
X31961Y-25428D01*
X31955Y-25414D01*
X31885Y-25344D01*
X31793Y-25306D01*
X31462Y-25306D01*
X31400Y-25368D01*
X31400Y-25900D01*
X31407Y-25900D01*
X31407Y-26000D01*
X31400Y-26000D01*
X31400Y-26531D01*
X31462Y-26593D01*
X31793Y-26593D01*
X31885Y-26555D01*
X31903Y-26537D01*
X31903Y-27362D01*
X31885Y-27344D01*
X31793Y-27306D01*
X31462Y-27306D01*
X31400Y-27368D01*
X31400Y-27900D01*
X31407Y-27900D01*
X31407Y-28000D01*
X31400Y-28000D01*
X31400Y-28531D01*
X31418Y-28550D01*
X31400Y-28568D01*
X31400Y-29100D01*
X31407Y-29100D01*
X31407Y-29200D01*
X31400Y-29200D01*
X31400Y-29731D01*
X31418Y-29750D01*
X31400Y-29768D01*
X31400Y-30300D01*
X31407Y-30300D01*
X31407Y-30400D01*
X31400Y-30400D01*
X31400Y-30931D01*
X31418Y-30950D01*
X31400Y-30968D01*
X31400Y-31500D01*
X31407Y-31500D01*
X31407Y-31600D01*
X31400Y-31600D01*
X31400Y-32131D01*
X31418Y-32150D01*
X31400Y-32168D01*
X31400Y-32700D01*
X31407Y-32700D01*
X31407Y-32800D01*
X31400Y-32800D01*
X31400Y-33331D01*
X31418Y-33350D01*
X31400Y-33368D01*
X31400Y-33900D01*
X31407Y-33900D01*
X31407Y-34000D01*
X31400Y-34000D01*
X31400Y-34531D01*
X31418Y-34550D01*
X31400Y-34568D01*
X31400Y-35100D01*
X31407Y-35100D01*
X31407Y-35200D01*
X31400Y-35200D01*
X31400Y-35731D01*
X31418Y-35750D01*
X31400Y-35768D01*
X31400Y-36300D01*
X31407Y-36300D01*
X31407Y-36400D01*
X31400Y-36400D01*
X31400Y-36931D01*
X31462Y-36993D01*
X31793Y-36993D01*
X31885Y-36955D01*
X31903Y-36937D01*
X31903Y-36950D01*
X31903Y-36959D01*
X31937Y-37130D01*
X32034Y-37275D01*
X32224Y-37465D01*
X32369Y-37562D01*
X32369Y-37562D01*
X32540Y-37596D01*
X33800Y-37596D01*
X33971Y-37562D01*
X33971Y-37562D01*
X34053Y-37507D01*
X34002Y-37645D01*
X34011Y-37901D01*
X34052Y-38000D01*
X30800Y-38000D01*
X30800Y-36940D01*
X30814Y-36955D01*
X30906Y-36993D01*
X31237Y-36993D01*
X31300Y-36931D01*
X31300Y-36400D01*
X31292Y-36400D01*
X31292Y-36300D01*
X31300Y-36300D01*
X31300Y-35768D01*
X31281Y-35750D01*
X31300Y-35731D01*
X31300Y-35200D01*
X31292Y-35200D01*
X31292Y-35100D01*
X31300Y-35100D01*
X31300Y-34568D01*
X31281Y-34550D01*
X31300Y-34531D01*
X31300Y-34000D01*
X31292Y-34000D01*
X31292Y-33900D01*
X31300Y-33900D01*
X31300Y-33368D01*
X31281Y-33350D01*
X31300Y-33331D01*
X31300Y-32800D01*
X31292Y-32800D01*
X31292Y-32700D01*
X31300Y-32700D01*
X31300Y-32168D01*
X31281Y-32150D01*
X31300Y-32131D01*
X31300Y-31600D01*
X31292Y-31600D01*
X31292Y-31500D01*
X31300Y-31500D01*
X31300Y-30968D01*
X31281Y-30950D01*
X31300Y-30931D01*
X31300Y-30400D01*
X31292Y-30400D01*
X31292Y-30300D01*
X31300Y-30300D01*
X31300Y-29768D01*
X31281Y-29750D01*
X31300Y-29731D01*
X31300Y-29200D01*
X31292Y-29200D01*
X31292Y-29100D01*
X31300Y-29100D01*
X31300Y-28568D01*
X31281Y-28550D01*
X31300Y-28531D01*
X31300Y-28000D01*
X31292Y-28000D01*
X31292Y-27900D01*
X31300Y-27900D01*
X31300Y-27368D01*
X31237Y-27306D01*
X30906Y-27306D01*
X30814Y-27344D01*
X30800Y-27359D01*
X30800Y-26540D01*
X30814Y-26555D01*
X30906Y-26593D01*
X31237Y-26593D01*
X31300Y-26531D01*
X31300Y-26000D01*
X31292Y-26000D01*
X31292Y-25900D01*
X31300Y-25900D01*
X31300Y-25368D01*
X31237Y-25306D01*
X30906Y-25306D01*
X30814Y-25344D01*
X30800Y-25359D01*
X30800Y-24700D01*
X43441Y-24700D01*
X43056Y-24859D01*
X42760Y-25154D01*
X42600Y-25540D01*
X42599Y-25957D01*
X42759Y-26344D01*
X43054Y-26639D01*
X43440Y-26799D01*
X43857Y-26800D01*
X44244Y-26640D01*
X44539Y-26345D01*
X44699Y-25959D01*
X44700Y-25750D01*
X44700Y-27359D01*
X44685Y-27344D01*
X44593Y-27306D01*
X44262Y-27306D01*
X44200Y-27368D01*
X44200Y-27900D01*
X44207Y-27900D01*
X44207Y-28000D01*
X44200Y-28000D01*
X44200Y-28531D01*
X44218Y-28550D01*
X44200Y-28568D01*
X44200Y-29100D01*
X44207Y-29100D01*
X44207Y-29200D01*
X44200Y-29200D01*
X44200Y-29731D01*
X44218Y-29750D01*
X44200Y-29768D01*
X44200Y-30300D01*
X44207Y-30300D01*
X44207Y-30400D01*
X44200Y-30400D01*
X44200Y-30931D01*
X44218Y-30950D01*
X44200Y-30968D01*
X44200Y-31500D01*
X44207Y-31500D01*
X44207Y-31600D01*
X44200Y-31600D01*
X44200Y-32131D01*
X44218Y-32150D01*
X44200Y-32168D01*
X44200Y-32700D01*
X44207Y-32700D01*
X44207Y-32800D01*
X44200Y-32800D01*
X44200Y-33331D01*
X44218Y-33350D01*
X44200Y-33368D01*
X44200Y-33900D01*
X44207Y-33900D01*
X44207Y-34000D01*
X44200Y-34000D01*
X44200Y-34531D01*
X44218Y-34550D01*
X44200Y-34568D01*
X44200Y-35100D01*
X44207Y-35100D01*
X44207Y-35200D01*
X44200Y-35200D01*
X44200Y-35731D01*
X44218Y-35750D01*
X44200Y-35768D01*
X44200Y-36300D01*
X44207Y-36300D01*
X44207Y-36400D01*
X44200Y-36400D01*
X44200Y-36931D01*
X44262Y-36993D01*
X44593Y-36993D01*
X44685Y-36955D01*
X44700Y-36940D01*
X44700Y-38000D01*
M02*
