M48
;DRILL file {Pcbnew (2013-may-18)-stable} date Sun Jan 10 17:55:07 2016
;FORMAT={-:-/ absolute / metric / decimal}
FMAT,2
METRIC,TZ
T1C0.800
T2C0.813
T3C1.000
T4C1.016
T5C3.048
%
G90
G05
M71
T1
X88.392Y-72.136
X94.107Y-67.183
X95.377Y-72.009
X95.504Y-68.707
X99.695Y-67.183
X100.711Y-71.247
X102.616Y-68.707
X104.648Y-71.247
T2
X88.011Y-90.805
X88.011Y-95.885
T3
X79.629Y-70.993
X79.629Y-74.041
X79.629Y-77.089
X79.629Y-80.137
X79.629Y-83.185
X79.629Y-86.233
X79.629Y-89.281
X79.629Y-92.329
X82.169Y-70.993
X82.169Y-74.041
X82.169Y-77.089
X82.169Y-80.137
X82.169Y-83.185
X82.169Y-86.233
X82.169Y-89.281
X82.169Y-92.329
X84.709Y-70.993
X84.709Y-74.041
X84.709Y-77.089
X84.709Y-80.137
X84.709Y-83.185
X84.709Y-86.233
X84.709Y-89.281
X84.709Y-92.329
X87.503Y-64.897
X90.043Y-64.897
X92.583Y-64.897
X95.123Y-64.897
X97.663Y-64.897
X100.203Y-64.897
X102.743Y-64.897
X105.283Y-64.897
X107.061Y-70.993
X107.061Y-74.041
X107.061Y-77.089
X107.061Y-80.137
X107.061Y-83.185
X107.061Y-86.233
X107.061Y-89.281
X107.061Y-92.329
X109.601Y-70.993
X109.601Y-74.041
X109.601Y-77.089
X109.601Y-80.137
X109.601Y-83.185
X109.601Y-86.233
X109.601Y-89.281
X109.601Y-92.329
X112.141Y-70.993
X112.141Y-74.041
X112.141Y-77.089
X112.141Y-80.137
X112.141Y-83.185
X112.141Y-86.233
X112.141Y-89.281
X112.141Y-92.329
T4
X79.629Y-65.913
X82.169Y-65.913
X90.297Y-91.567
X90.297Y-94.107
X100.457Y-90.424
X100.457Y-95.504
T5
X110.871Y-65.405
T0
M30
